sub-01
sub-02
sub-03
sub-04
sub-05
sub-06
sub-07
sub-08
sub-09
sub-10
sub-11
sub-12
sub-15
sub-16
sub-17
sub-18
sub-19
sub-20
sub-20B
sub-21
sub-22
sub-23
sub-24
sub-25
sub-26
sub-27
sub-28
sub-29
sub-30
sub-31
sub-32
sub-33
sub-34
sub-34B
sub-35
sub-36
sub-37
sub-37B
sub-38
sub-39
sub-40
sub-41
sub-41B
sub-42
sub-42B
sub-43
sub-44
sub-45
sub-46
sub-46B
sub-47
sub-47B
sub-48
sub-49
sub-50
sub-50B
sub-51
sub-52
sub-52B
sub-53
sub-53B
sub-54
sub-55
sub-56
sub-56B
sub-57
sub-58
sub-59
sub-60
sub-60B
